Name,BodyweightKg,WeightClassKg,Age,Division,AgeRange,Squat1Kg,Squat2Kg,Squat3Kg,Best3SquatKg,Bench1Kg,Bench2Kg,Bench3Kg,Best3BenchKg,Deadlift1Kg,Deadlift2Kg,Deadlift3Kg,Best3DeadliftKg,TotalKg,Event,Equipment,Sex,Place
Timothy Jorden,51.7,52,,Teen 14-15,14-15,-105,105,115,115,85,90,92.5,92.5,140,147.5,-152.5,147.5,355,SBD,Single-ply,M,1
K. Ellison,49.6,52,,Teen 14-15,14-15,-122.5,122.5,130,130,72.5,-77.5,-77.5,72.5,127.5,137.5,-145,137.5,340,SBD,Single-ply,M,3
Mike Thompson #1,50.5,52,,Teen 14-15,14-15,110,120,-122.5,120,65,67.5,70,70,137.5,150,152.5,152.5,342.5,SBD,Single-ply,M,2
David Parr #1,50.8,52,,Teen 14-15,14-15,110,-125,-130,110,70,-82.5,-85,70,115,132.5,-137.5,132.5,312.5,SBD,Single-ply,M,4
D. Dowden,50.8,52,,Teen 14-15,14-15,90,97.5,105,105,62.5,70,-77.5,70,117.5,125,135,135,310,SBD,Single-ply,M,5
Dean Friesen,50.8,52,,Teen 14-15,14-15,100,110,117.5,117.5,57.5,65,-67.5,65,107.5,117.5,-122.5,117.5,300,SBD,Single-ply,M,6
A. Roath,48.9,52,,Teen 14-15,14-15,80,87.5,-97.5,87.5,52.5,60,62.5,62.5,102.5,115,122.5,122.5,272.5,SBD,Single-ply,M,7
J. Wright,44.9,52,,Teen 14-15,14-15,102.5,107.5,-115,107.5,42.5,50,-57.5,50,92.5,102.5,110,110,267.5,SBD,Single-ply,M,8
C. Lorhrlein,51.2,52,,Teen 14-15,14-15,85,-92.5,-92.5,85,47.5,-55,55,55,97.5,107.5,117.5,117.5,257.5,SBD,Single-ply,M,9
J. Okubo,54.4,56,,Teen 14-15,14-15,160,170,182.5,182.5,82.5,92.5,95,95,132.5,140,147.5,147.5,425,SBD,Single-ply,M,1
Tim Donze,55.3,56,,Teen 14-15,14-15,-137.5,147.5,155,155,70,75,-80,75,137.5,160,-165,160,390,SBD,Single-ply,M,2
R. Hayers,54.6,56,,Teen 14-15,14-15,142.5,-160,-160,142.5,-72.5,72.5,-77.5,72.5,152.5,165,-172.5,165,380,SBD,Single-ply,M,3
S. Nakakura,58,60,,Teen 14-15,14-15,-142.5,142.5,160,160,97.5,102.5,107.5,107.5,142.5,152.5,160,160,427.5,SBD,Single-ply,M,1
Billy Haddad,58.8,60,,Teen 14-15,14-15,140,150,-160,150,72.5,80,85,85,150,160,-165,160,395,SBD,Single-ply,M,2
J. Fuzi,58,60,,Teen 14-15,14-15,132.5,140,-147.5,140,77.5,-82.5,-82.5,77.5,147.5,155,160,160,377.5,SBD,Single-ply,M,3
F. Foltz,58.5,60,,Teen 14-15,14-15,120,125,-130,125,75,85,-87.5,85,152.5,162.5,-167.5,162.5,372.5,SBD,Single-ply,M,4
D. Hudspeth,58.9,60,,Teen 14-15,14-15,-112.5,-112.5,112.5,112.5,85,90,-95,90,125,127.5,145,145,347.5,SBD,Single-ply,M,5
M. Dawson,58.9,60,,Teen 14-15,14-15,127.5,132.5,-137.5,132.5,75,-80,-80,75,122.5,132.5,-137.5,132.5,340,SBD,Single-ply,M,6
H. Azvedoe,57.1,60,,Teen 14-15,14-15,-120,-120,-120,,,,,,,,,,,SBD,Single-ply,M,DQ
W. Gamble,59.7,60,,Teen 14-15,14-15,-132.5,-132.5,132.5,132.5,72.5,77.5,80,80,,,,,,SBD,Single-ply,M,DQ
E. Sanchez,64.8,67.5,,Teen 14-15,14-15,-160,160,182.5,182.5,110,120,-130,120,175,195,-200,195,497.5,SBD,Single-ply,M,1
T. Smith,61.8,67.5,,Teen 14-15,14-15,172.5,-187.5,-190,172.5,102.5,107.5,-110,107.5,177.5,-195,,177.5,457.5,SBD,Single-ply,M,2
C. Drake,65.3,67.5,,Teen 14-15,14-15,-152.5,-162.5,162.5,162.5,77.5,-82.5,-82.5,77.5,167.5,182.5,-197.5,182.5,422.5,SBD,Single-ply,M,3
J. McNeil,64.8,67.5,,Teen 14-15,14-15,142.5,-152.5,152.5,152.5,85,90,95,95,152.5,162.5,172.5,172.5,420,SBD,Single-ply,M,4
R. Wright,61.2,67.5,,Teen 14-15,14-15,142.5,-150,155,155,75,82.5,-85,82.5,142.5,152.5,-160,152.5,390,SBD,Single-ply,M,5
T. Cavaglia,66.2,67.5,,Teen 14-15,14-15,-125,125,-137.5,125,67.5,72.5,75,75,127.5,137.5,150,150,350,SBD,Single-ply,M,6
D. Hutto,66.1,67.5,,Teen 14-15,14-15,110,-125,125,125,-97.5,97.5,-100,97.5,65,-145,,65,287.5,SBD,Single-ply,M,7
Pat Haley,73.2,75,,Teen 14-15,14-15,205,-217.5,-217.5,205,130,137.5,142.5,142.5,215,230,-240,230,577.5,SBD,Single-ply,M,1
Tom Kristoff,73.9,75,,Teen 14-15,14-15,155,172.5,-182.5,172.5,92.5,97.5,100,100,185,202.5,-210,202.5,475,SBD,Single-ply,M,2
Joey Lanzante,73.5,75,,Teen 14-15,14-15,162.5,170,-175,170,87.5,95,100,100,175,185,190,190,460,SBD,Single-ply,M,3
C. Bothwell,73.1,75,,Teen 14-15,14-15,130,155,167.5,167.5,25,90,97.5,97.5,147.5,175,190,190,455,SBD,Single-ply,M,4
M. Fitzpatrick,81.5,82.5,,Teen 14-15,14-15,142.5,172.5,-177.5,172.5,92.5,107.5,110,110,182.5,205,220,220,502.5,SBD,Single-ply,M,1
D. Matherly,81.25,82.5,,Teen 14-15,14-15,200,-212.5,-227.5,200,90,-102.5,105,105,167.5,182.5,195,195,500,SBD,Single-ply,M,2
B. Streeter,80.75,82.5,,Teen 14-15,14-15,130,-140,140,140,92.5,100,-107.5,100,200,212.5,220,220,460,SBD,Single-ply,M,3
Trent Greener,80.3,82.5,,Teen 14-15,14-15,127.5,-140,147.5,147.5,70,77.5,80,80,162.5,-182.5,182.5,182.5,410,SBD,Single-ply,M,4
S. Lawryn,84.8,90,,Teen 14-15,14-15,177.5,185,195,195,95,102.5,107.5,107.5,-190,202.5,210,210,512.5,SBD,Single-ply,M,1
Jamie Roye,89.2,90,,Teen 14-15,14-15,130,140,-152.5,140,80,85,-90,85,167.5,180,-192.5,180,405,SBD,Single-ply,M,2
W. Campbell,98.5,100,,Teen 14-15,14-15,210,-220,220,220,117.5,132.5,,132.5,227.5,242.5,245,245,597.5,SBD,Single-ply,M,1
J. Bryson,98.5,100,,Teen 14-15,14-15,170,180,-192.5,180,100,107.5,112.5,112.5,190,200,207.5,207.5,500,SBD,Single-ply,M,2
T. Mooney,94,100,,Teen 14-15,14-15,157.5,-172.5,-172.5,157.5,82.5,87.5,92.5,92.5,162.5,172.5,187.5,187.5,437.5,SBD,Single-ply,M,3
Tavita Sagapolu,107.8,110,15,Teen 14-15,14-15,290,-312.5,-312.5,290,165,-175,-175,165,260,-275,275,275,730,SBD,Single-ply,M,1
J. Buchanan,103.9,110,,Teen 14-15,14-15,197.5,212.5,-217.5,212.5,107.5,-115,115,115,192.5,202.5,210,210,537.5,SBD,Single-ply,M,2
T. Springfield,101.6,110,,Teen 14-15,14-15,182.5,-202.5,-202.5,182.5,117.5,120,125,125,175,187.5,195,195,502.5,SBD,Single-ply,M,3
Fred Toins,51.9,52,,Teen 16-17,16-17,147.5,-160,-160,147.5,77.5,82.5,85,85,187.5,205,,205,437.5,SBD,Single-ply,M,1
C. Freitas,50.8,52,,Teen 16-17,16-17,-142.5,-142.5,142.5,142.5,87.5,-95,95,95,152.5,160,-165,160,397.5,SBD,Single-ply,M,2
Brian Foddrill,51.2,52,,Teen 16-17,16-17,115,127.5,-132.5,127.5,80,-87.5,-87.5,80,170,-175,-175,170,377.5,SBD,Single-ply,M,3
D. Boudoin,51.2,52,,Teen 16-17,16-17,-122.5,122.5,127.5,127.5,75,-80,-80,75,167.5,-177.5,-177.5,167.5,370,SBD,Single-ply,M,4
Jim Shea,50.1,52,,Teen 16-17,16-17,105,-115,-115,105,85,90,95,95,137.5,152.5,160,160,360,SBD,Single-ply,M,5
D. Donovan,50.5,52,,Teen 16-17,16-17,105,120,-127.5,120,77.5,-82.5,82.5,82.5,120,142.5,155,155,357.5,SBD,Single-ply,M,6
S. Smith #7,50.8,52,,Teen 16-17,16-17,95,-102.5,-110,95,-75,80,82.5,82.5,140,-145,-145,140,317.5,SBD,Single-ply,M,7
Sal Boscareno,50.8,52,,Teen 16-17,16-17,120,-132.5,-132.5,120,60,67.5,-77.5,67.5,112.5,122.5,-135,122.5,310,SBD,Single-ply,M,8
B. Kaneshiro,55.1,56,,Teen 16-17,16-17,162.5,170,-182.5,170,100,110,115,115,150,-155,-165,150,435,SBD,Single-ply,M,1
Jim Smith,55.4,56,,Teen 16-17,16-17,160,-177.5,-177.5,160,67.5,77.5,-82.5,77.5,165,180,-200,180,417.5,SBD,Single-ply,M,2
Dan Trejo,55.3,56,,Teen 16-17,16-17,142.5,-152.5,-152.5,142.5,77.5,-82.5,-85,77.5,170,180,187.5,187.5,407.5,SBD,Single-ply,M,3
D. Gonzales,54.8,56,,Teen 16-17,16-17,142.5,-152.5,-155,142.5,82.5,87.5,-92.5,87.5,150,162.5,167.5,167.5,397.5,SBD,Single-ply,M,4
J. Mertis,53.9,56,,Teen 16-17,16-17,115,127.5,-137.5,127.5,87.5,-92.5,-92.5,87.5,142.5,155,-172.5,155,370,SBD,Single-ply,M,5
M. Baker,54.8,56,,Teen 16-17,16-17,120,-127.5,-127.5,120,70,-77.5,-77.5,70,157.5,-165,-165,157.5,347.5,SBD,Single-ply,M,6
J. Rodriguez,59.1,60,,Teen 16-17,16-17,182.5,192.5,-200,192.5,105,112.5,-117.5,112.5,177.5,-187.5,-187.5,177.5,482.5,SBD,Single-ply,M,1
Chris Boillot,58.5,60,,Teen 16-17,16-17,165,-177.5,-180,165,107,-115,115,115,167.5,180,-190,180,460,SBD,Single-ply,M,2
D. Enderle,59.1,60,,Teen 16-17,16-17,-180,-180,190,190,85,90,-95,90,165,180,-190,180,460,SBD,Single-ply,M,3
R. Clifton,59.8,60,,Teen 16-17,16-17,142.5,150,-165,150,82.5,87.5,-90,87.5,165,175,-182.5,175,412.5,SBD,Single-ply,M,4
D. Rice,58.5,60,,Teen 16-17,16-17,122.5,140,145,145,80,85,-87.5,85,170,-177.5,177.5,177.5,407.5,SBD,Single-ply,M,5
J. Velma,58.9,60,,Teen 16-17,16-17,115,130,140,140,97.5,-105,-105,97.5,142.5,165,-180,165,402.5,SBD,Single-ply,M,6
J. Gonzales,58,60,,Teen 16-17,16-17,137.5,145,152.5,152.5,-92.5,-100,-100,,,,,,,SBD,Single-ply,M,DQ
J. Perez,59.6,60,,Teen 16-17,16-17,-175,-175,-175,,,,,,,,,,,SBD,Single-ply,M,DQ
Kurt Feldman,67.1,67.5,,Teen 16-17,16-17,-187.5,-187.5,192.5,192.5,130,-137.5,137.5,137.5,205,220,227.5,227.5,557.5,SBD,Single-ply,M,1
J. Hellum,66.2,67.5,,Teen 16-17,16-17,-207.5,207.5,-212.5,207.5,120,127.5,132.5,132.5,195,207.5,215,215,555,SBD,Single-ply,M,2
Paul Lanzante,66.4,67.5,,Teen 16-17,16-17,195,-215,-215,195,110,117.5,120,120,212.5,227.5,-242.5,227.5,542.5,SBD,Single-ply,M,3
Kent Chambers,67.2,67.5,,Teen 16-17,16-17,200,-212.5,-212.5,200,110,120,-125,120,202.5,212.5,-215,212.5,532.5,SBD,Single-ply,M,4
B. Batdorf,66.4,67.5,,Teen 16-17,16-17,-190,-190,190,190,107.5,112.5,-115,112.5,205,212.5,-215,212.5,515,SBD,Single-ply,M,5
J. Higgs,65.8,67.5,,Teen 16-17,16-17,160,-172.5,172.5,172.5,132.5,140,145,145,192.5,-207.5,,192.5,510,SBD,Single-ply,M,7
Gary McMoran,66.2,67.5,,Teen 16-17,16-17,177.5,-190,192.5,192.5,92.5,100,-105,100,205,215,220,220,512.5,SBD,Single-ply,M,6
J. Combest,66.6,67.5,,Teen 16-17,16-17,-165,165,-172.5,165,95,-102.5,-102.5,95,-227.5,-227.5,227.5,227.5,487.5,SBD,Single-ply,M,8
W. Werner,64.4,67.5,,Teen 16-17,16-17,-160,165,170,170,87.5,95,97.5,97.5,167.5,182.5,-192.5,182.5,450,SBD,Single-ply,M,10
J. Ottney,67.3,67.5,,Teen 16-17,16-17,150,-162.5,-162.5,150,105,-110,-110,105,170,182.5,190,190,445,SBD,Single-ply,M,11
R. Reynolds,65.3,67.5,,Teen 16-17,16-17,155,-175,-175,155,72.5,-82.5,-82.5,72.5,190,210,-215,210,437.5,SBD,Single-ply,M,12
Rich Nilsen,65,67.5,,Teen 16-17,16-17,130,150,-170,150,102.5,-117.5,117.5,117.5,167.5,-202.5,202.5,202.5,470,SBD,Single-ply,M,9
B. Maggio,66.2,67.5,,Teen 16-17,16-17,145,,,145,95,102.5,105,105,167.5,177.5,182.5,182.5,432.5,SBD,Single-ply,M,13
T. Coterbauer,65.7,67.5,,Teen 16-17,16-17,157.5,-172.5,-177.5,157.5,85,92.5,97.5,97.5,160,-175,175,175,430,SBD,Single-ply,M,14
Tommy Sivils,64.6,67.5,,Teen 16-17,16-17,-155,155,-175,155,80,-90,-90,80,170,185,-190,185,420,SBD,Single-ply,M,15
T. Oakes,63.5,67.5,,Teen 16-17,16-17,112.5,127.5,-137.5,127.5,82.5,-87.5,87.5,87.5,172.5,187.5,197.5,197.5,412.5,SBD,Single-ply,M,16
G. Heinrichs,64.8,67.5,,Teen 16-17,16-17,122.5,142.5,-155,142.5,85,100,102.5,102.5,145,-167.5,167.5,167.5,412.5,SBD,Single-ply,M,17
K. Wall,63.3,67.5,,Teen 16-17,16-17,-147.5,147.5,-160,147.5,80,85,-87.5,85,170,-182.5,-182.5,170,402.5,SBD,Single-ply,M,18
P. Mahl,65.2,67.5,,Teen 16-17,16-17,-147.5,-147.5,-147.5,,,,,,,,,,,SBD,Single-ply,M,DQ
D. Black,66.4,67.5,,Teen 16-17,16-17,-150,-160,-160,,,,,,,,,,,SBD,Single-ply,M,DQ
Robert Bridges,64.8,67.5,,Teen 16-17,16-17,-227.5,-227.5,-227.5,,,,,,,,,,,SBD,Single-ply,M,DQ
Jeff Wright #5,74.3,75,,Teen 16-17,16-17,170,-182.5,-182.5,170,160,-167.5,-167.5,160,182.5,205,215,215,545,SBD,Single-ply,M,1
M. Beeker,73.4,75,,Teen 16-17,16-17,-195,195,-207.5,195,117.5,-122.5,-122.5,117.5,210,215,-217.5,215,527.5,SBD,Single-ply,M,2
D. Bies,73,75,,Teen 16-17,16-17,185,205,-215,205,122.5,-137.5,-137.5,122.5,195,-205,-205,195,522.5,SBD,Single-ply,M,3
Mark Slivinski,72.5,75,,Teen 16-17,16-17,177.5,192.5,197.5,197.5,87.5,92.5,97.5,97.5,190,205,220,220,515,SBD,Single-ply,M,4
S. Oates,72.1,75,,Teen 16-17,16-17,-162.5,-162.5,162.5,162.5,107.5,117.5,120,120,205,220,227.5,227.5,510,SBD,Single-ply,M,5
S. Kamberis,73.9,75,,Teen 16-17,16-17,167.5,182.5,-190,182.5,90,97.5,102.5,102.5,192.5,207.5,217.5,217.5,502.5,SBD,Single-ply,M,6
R. Medlin,72.8,75,,Teen 16-17,16-17,155,162.5,170,170,110,115,-117.5,115,190,200,210,210,495,SBD,Single-ply,M,7
S. McGough,73.9,75,,Teen 16-17,16-17,-162.5,-172.5,172.5,172.5,122.5,-127.5,-127.5,122.5,195,-207.5,-210,195,490,SBD,Single-ply,M,8
Fred Greener,73.2,75,,Teen 16-17,16-17,155,172.5,-180,172.5,82.5,92.5,-95,92.5,170,192.5,205,205,470,SBD,Single-ply,M,9
D. Ackerman,72.5,75,,Teen 16-17,16-17,155,172.5,-177.5,172.5,87.5,95,97.5,97.5,190,197.5,-202.5,197.5,467.5,SBD,Single-ply,M,10
J. Schwartz,74.3,75,,Teen 16-17,16-17,147.5,-157.5,-157.5,147.5,87.5,92.5,95,95,170,-195,-195,170,412.5,SBD,Single-ply,M,11
A. McCallon,69.4,75,,Teen 16-17,16-17,-205,-205,-205,,,,,,,,,,,SBD,Single-ply,M,DQ
Richard Wenner,81.8,82.5,,Teen 16-17,16-17,-205,205,220,220,147.5,152.5,155,155,247.5,255,262.5,262.5,637.5,SBD,Single-ply,M,1
Steve Hutchinson,80.75,82.5,,Teen 16-17,16-17,205,225,237.5,237.5,122.5,-132.5,-132.5,122.5,227.5,237.5,-255,237.5,597.5,SBD,Single-ply,M,2
David Bies,81.3,82.5,,Teen 16-17,16-17,-187.5,187.5,-215,187.5,142.5,160,-167.5,160,220,-237.5,237.5,237.5,585,SBD,Single-ply,M,3
M. Everly,81,82.5,,Teen 16-17,16-17,182.5,187.5,192.5,192.5,122.5,127.5,130,130,235,240,252.5,252.5,575,SBD,Single-ply,M,4
R. Coleman,79.3,82.5,,Teen 16-17,16-17,-215,215,-227.5,215,100,120,127.5,127.5,197.5,217.5,-227.5,217.5,560,SBD,Single-ply,M,5
M. Powell,81,82.5,,Teen 16-17,16-17,157.5,-175,-177.5,157.5,155,170,-177.5,170,-182.5,187.5,-212.5,187.5,515,SBD,Single-ply,M,6
W. Gillespie,77.75,82.5,,Teen 16-17,16-17,-177.5,-182.5,185,185,-115,115,-120,115,207.5,-232.5,-232.5,207.5,507.5,SBD,Single-ply,M,7
W. Bishop,82,82.5,,Teen 16-17,16-17,162.5,-172.5,-180,162.5,105,112.5,-117.5,112.5,175,205,-227.5,205,480,SBD,Single-ply,M,8
J. Elmore,79,82.5,,Teen 16-17,16-17,-160,160,-182.5,160,110,117.5,-122.5,117.5,175,182.5,200,200,477.5,SBD,Single-ply,M,9
J. Gibson,80,82.5,,Teen 16-17,16-17,-175,-175,180,180,-125,-125,-125,,,,,,,SBD,Single-ply,M,DQ
W. Towner,82,82.5,,Teen 16-17,16-17,-190,-190,-200,,,,,,,,,,,SBD,Single-ply,M,DQ
Greg Weaver,81.5,82.5,,Teen 16-17,16-17,-105,-195,195,195,142.5,152.5,-155,152.5,-205,-210,-210,,,SBD,Single-ply,M,DQ
D. Graham,81.3,82.5,,Teen 16-17,16-17,-205,-205,-210,,,,,,,,,,,SBD,Single-ply,M,DQ
Joe Ladnier,88.6,90,,Teen 16-17,16-17,275,-290,-290,275,177.5,187.5,192.5,192.5,267.5,285,292.5,292.5,760,SBD,Single-ply,M,1
K. Cavitt,89.8,90,,Teen 16-17,16-17,-242.5,-252.5,262.5,262.5,137.5,147.5,-152.5,147.5,275,287.5,-295,287.5,697.5,SBD,Single-ply,M,2
C. Van Landingham,89.2,90,,Teen 16-17,16-17,-227.5,227.5,237.5,237.5,147.5,155,-160,155,240,250,-260,250,642.5,SBD,Single-ply,M,3
K. Gray,87,90,,Teen 16-17,16-17,192.5,205,215,215,135,-142.5,-142.5,135,207.5,217.5,-227.5,217.5,567.5,SBD,Single-ply,M,5
P. Walker,88.2,90,,Teen 16-17,16-17,152.5,165,170,170,112.5,120,122.5,122.5,227.5,-290,290,290,582.5,SBD,Single-ply,M,4
Doug Ballard,89.75,90,,Teen 16-17,16-17,-207.5,-207.5,207.5,207.5,-105,107.5,110,110,210,-227.5,-227.5,210,527.5,SBD,Single-ply,M,6
Vin Cupo,90,90,,Teen 16-17,16-17,172.5,-187.5,187.5,187.5,85,97.5,105,105,175,207.5,215,215,507.5,SBD,Single-ply,M,8
A. Ulibarri,86.5,90,,Teen 16-17,16-17,157.5,172.5,-180,172.5,125,137.5,-140,137.5,175,187.5,-202.5,187.5,497.5,SBD,Single-ply,M,9
C. Van Dorn,87,90,,Teen 16-17,16-17,-187.5,187.5,-200,187.5,100,107.5,-117.5,107.5,-187.5,200,220,220,515,SBD,Single-ply,M,7
B. Stromsdorfer,89,90,,Teen 16-17,16-17,-182.5,-190,192.5,192.5,-112.5,-117.5,-117.5,,,,,,,SBD,Single-ply,M,DQ
R. Frost,89,90,,Teen 16-17,16-17,-200,-215,-215,,,,,,,,,,,SBD,Single-ply,M,DQ
S. Ross,98.1,100,,Teen 16-17,16-17,237.5,-262.5,262.5,262.5,-165,165,-172.5,165,240,-255,260,260,687.5,SBD,Single-ply,M,1
Dion Savage,99.3,100,,Teen 16-17,16-17,190,192.5,207.5,207.5,150,160,-162.5,160,272.5,292.5,-295,292.5,660,SBD,Single-ply,M,2
M. Clark #1,99.8,100,,Teen 16-17,16-17,215,230,,230,140,-147.5,150,150,260,272.5,-280,272.5,652.5,SBD,Single-ply,M,3
P. Story,91.3,100,,Teen 16-17,16-17,-220,220,-230,220,150,155,160,160,260,,,260,640,SBD,Single-ply,M,4
W. Thaxton,90.8,100,,Teen 16-17,16-17,197.5,-215,217.5,217.5,132.5,140,-142.5,140,-242.5,247.5,260,260,617.5,SBD,Single-ply,M,5
K. Missi,99.25,100,,Teen 16-17,16-17,245,-252.5,-252.5,245,115,125,-130,125,-227.5,227.5,-240,227.5,597.5,SBD,Single-ply,M,6
Ken Ufford,92,100,,Teen 16-17,16-17,195,205,-217.5,205,125,-137.5,137.5,137.5,225,240,-247.5,240,582.5,SBD,Single-ply,M,7
B. Emanuels,99,100,,Teen 16-17,16-17,220,-245,-245,220,-115,115,-122.5,115,227.5,-245,,227.5,562.5,SBD,Single-ply,M,8
K. Bor,99.5,100,,Teen 16-17,16-17,217.5,-225,-225,217.5,110,115,120,120,-205,215,225,225,562.5,SBD,Single-ply,M,9
E. Halter,96.7,100,,Teen 16-17,16-17,-212.5,-212.5,212.5,212.5,122.5,127.5,130,130,-187.5,187.5,195,195,537.5,SBD,Single-ply,M,11
C. Woodward,99.5,100,,Teen 16-17,16-17,175,195,-200,195,100,112.5,-117.5,112.5,205,227.5,-232.5,227.5,535,SBD,Single-ply,M,12
T. Behme,92.75,100,,Teen 16-17,16-17,180,185,192.5,192.5,90,95,100,100,205,217.5,227.5,227.5,520,SBD,Single-ply,M,13
M. Ashcraft,96,100,,Teen 16-17,16-17,215,-227.5,227.5,227.5,95,105,110,110,212.5,-227.5,,212.5,550,SBD,Single-ply,M,10
P. Hull,99.7,100,,Teen 16-17,16-17,-192.5,-192.5,-192.5,,,,,,,,,,,SBD,Single-ply,M,DQ
Jackie Pardue,103.4,110,,Teen 16-17,16-17,222.5,235,245,245,132.5,-140,140,140,222.5,237.5,260,260,645,SBD,Single-ply,M,1
Ken Sewell,107.6,110,,Teen 16-17,16-17,-235,-235,235,235,145,152.5,-157.5,152.5,227.5,242.5,-265,242.5,630,SBD,Single-ply,M,2
T. White,105.2,110,,Teen 16-17,16-17,-192.5,-192.5,192.5,192.5,137.5,142.5,-147.5,142.5,205,237.5,-250,237.5,572.5,SBD,Single-ply,M,3
M. Freeman,107,110,,Teen 16-17,16-17,-200,-200,-200,,,,,,,,,,,SBD,Single-ply,M,DQ
A. Awong,110.6,125,,Teen 16-17,16-17,235,-252.5,262.5,262.5,157.5,167.5,-172.5,167.5,240,-252.5,-252.5,240,670,SBD,Single-ply,M,1
R. Walsh,111.5,125,,Teen 16-17,16-17,190,220,227.5,227.5,110,-122.5,122.5,122.5,207.5,225,237.5,237.5,587.5,SBD,Single-ply,M,2
Bob Mikulski,119.3,125,,Teen 16-17,16-17,155,172.5,-182.5,172.5,105,-110,112.5,112.5,215,227.5,250,250,535,SBD,Single-ply,M,3
B. Harris,110.8,125,,Teen 16-17,16-17,142.5,162.5,-172.5,162.5,102.5,110,117.5,117.5,180,190,197.5,197.5,477.5,SBD,Single-ply,M,4
Harold Escobedo,51.5,52,,Teen 18-19,18-19,155,-175,-175,155,122.5,130,135,135,150,167.5,182.5,182.5,472.5,SBD,Single-ply,M,1
Kevin Jones #12,51,52,,Teen 18-19,18-19,135,142.5,-150,142.5,77.5,82.5,-85,82.5,-147.5,147.5,155,155,380,SBD,Single-ply,M,2
Mansoor Ijaz,51.4,52,,Teen 18-19,18-19,-122.5,137.5,-142.5,137.5,70,75,-80,75,150,162.5,-170,162.5,375,SBD,Single-ply,M,3
Steve Snyder #1,54.4,56,,Teen 18-19,18-19,15,172.5,-177.5,172.5,92.5,97.5,102.5,102.5,187.5,202.5,-210,202.5,477.5,SBD,Single-ply,M,1
Randall Kea,55.3,56,,Teen 18-19,18-19,150,-167.5,-167.5,150,125,132.5,-137.5,132.5,170,192.5,-197.5,192.5,475,SBD,Single-ply,M,2
Dan Savoie,55.7,56,,Teen 18-19,18-19,147.5,172.5,-182.5,172.5,87.5,97.5,102.5,102.5,167.5,185,192.5,192.5,467.5,SBD,Single-ply,M,3
Dean Pickle,55.7,56,,Teen 18-19,18-19,59,160,-170,160,95,100,-105,100,187.5,195,-200,195,455,SBD,Single-ply,M,4
T. DeSomma,55.1,56,,Teen 18-19,18-19,150,-162.5,-162.5,150,95,100,-105,100,167.5,182.5,-190,182.5,432.5,SBD,Single-ply,M,5
R. Schmidt,55.1,56,,Teen 18-19,18-19,157.5,-167.5,-167.5,157.5,67.5,-77.5,-77.5,67.5,165,180,-200,180,405,SBD,Single-ply,M,6
Chuck Roberts,55.9,56,,Teen 18-19,18-19,132.5,-145,-145,132.5,-90,95,-97.5,95,152.5,162.5,-190,162.5,390,SBD,Single-ply,M,7
J. Courtney,54.8,56,,Teen 18-19,18-19,-155,-155,-155,,,,,,,,,,,SBD,Single-ply,M,DQ
Keith Goude,59.7,60,,Teen 18-19,18-19,-187.5,187.5,-210,187.5,100,107.5,115,115,185,-200,-200,185,487.5,SBD,Single-ply,M,1
D. Hughes,59.1,60,,Teen 18-19,18-19,165,-177.5,-180,165,107.5,112.5,-115,112.5,170,185,195,195,472.5,SBD,Single-ply,M,2
Darrell Messer,59.4,60,,Teen 18-19,18-19,160,170,177.5,177.5,90,97.5,-100,97.5,187.5,-197.5,-197.5,187.5,462.5,SBD,Single-ply,M,3
M. Mahmudi,58.5,60,,Teen 18-19,18-19,140,-150,-160,140,-120,-120,120,120,182.5,192.5,-200,192.5,452.5,SBD,Single-ply,M,5
Jerry Sylvia,56.2,60,,Teen 18-19,18-19,140,-147.5,150,150,92.5,97.5,102.5,102.5,177.5,190,200,200,452.5,SBD,Single-ply,M,4
Paul Honda,58.9,60,,Teen 18-19,18-19,-155,155,165,165,92.5,97.5,-100,97.5,185,-197.5,-197.5,185,447.5,SBD,Single-ply,M,6
R. Vidrine,59.6,60,,Teen 18-19,18-19,-142.5,150,-162.5,150,90,-95,-95,90,182.5,-195,-195,182.5,422.5,SBD,Single-ply,M,7
L. Larson,59.8,60,,Teen 18-19,18-19,-205,-205,-205,,,,,,,,,,,SBD,Single-ply,M,DQ
Howard Hoffman,66.6,67.5,,Teen 18-19,18-19,-222.5,222.5,230,230,132.5,140,-142.5,140,255,272.5,-277.5,272.5,642.5,SBD,Single-ply,M,1
Lloyd Kee,67,67.5,,Teen 18-19,18-19,222.5,-237.5,-237.5,222.5,130,137.5,-140,137.5,222.5,-247.5,-247.5,222.5,582.5,SBD,Single-ply,M,2
John Ronza III,66.6,67.5,,Teen 18-19,18-19,195,200,212.5,212.5,137.5,147.5,-152.5,147.5,195,205,-212.5,205,565,SBD,Single-ply,M,3
Butch Dunn,65.7,67.5,,Teen 18-19,18-19,212.5,-222.5,-222.5,212.5,122.5,-127.5,-127.5,122.5,177.5,197.5,205,205,540,SBD,Single-ply,M,4
J. Davis #3,67.1,67.5,,Teen 18-19,18-19,170,-182.5,182.5,182.5,107.5,-117.5,120,120,207.5,215,227.5,227.5,530,SBD,Single-ply,M,5
Dan Jewell,65.9,67.5,,Teen 18-19,18-19,205,-217.5,,205,102.5,107.5,-112.5,107.5,187.5,197.5,202.5,202.5,515,SBD,Single-ply,M,6
Mark Fell,65.7,67.5,,Teen 18-19,18-19,-185,-185,185,185,105,112.5,-120,112.5,175,185,-190,185,482.5,SBD,Single-ply,M,7
M. Monzardo,66.1,67.5,,Teen 18-19,18-19,-182.5,182.5,-192.5,182.5,100,-105,107.5,107.5,177.5,-192.5,-192.5,177.5,467.5,SBD,Single-ply,M,8
Bernie O'Connell,66.6,67.5,,Teen 18-19,18-19,150,160,-175,160,117.5,125,130,130,167.5,-182.5,-182.5,167.5,457.5,SBD,Single-ply,M,9
K. Martin,64.4,67.5,,Teen 18-19,18-19,162.5,167.5,-177.5,167.5,85,-92.5,-95,85,200,-217.5,-217.5,200,452.5,SBD,Single-ply,M,10
C. Jordan,65,67.5,,Teen 18-19,18-19,150,167.5,-175,167.5,70,82.5,85,85,185,-197.5,197.5,197.5,450,SBD,Single-ply,M,11
D. Snokhous,65.2,67.5,,Teen 18-19,18-19,-170,-170,-172.5,,,,,,,,,,,SBD,Single-ply,M,DQ
Fred Cortes,66.2,67.5,,Teen 18-19,18-19,-175,-182.5,-190,,,,,,,,,,,SBD,Single-ply,M,DQ
Dean Lontos,67.1,67.5,,Teen 18-19,18-19,-182.5,-182.5,-182.5,,,,,,,,,,,SBD,Single-ply,M,DQ
B. Broussard,66.9,,,Teen 18-19,18-19,-200,-200,-200,,,,,,,,,,,SBD,Single-ply,M,DQ
Vinson Keyhea,73.4,75,,Teen 18-19,18-19,217.5,230,240,240,132.5,140,147.5,147.5,270,287.5,307.5,307.5,695,SBD,Single-ply,M,1
T. Smith,74.1,75,,Teen 18-19,18-19,-262.5,262.5,-272.5,262.5,152.5,165,-170,165,245,257.5,267.5,267.5,695,SBD,Single-ply,M,2
Bill Almany,74.2,75,,Teen 18-19,18-19,240,-262.5,-262.5,240,147.5,155,-160,155,245,252.5,-272.5,252.5,647.5,SBD,Single-ply,M,3
Dennis Jessup,74.3,75,,Teen 18-19,18-19,227.5,240,-245,240,137.5,150,155,155,240,-242.5,-250,240,635,SBD,Single-ply,M,4
Ray Calcaterra,74.4,75,,Teen 18-19,18-19,200,207.5,-210,207.5,132.5,137.5,,137.5,242.5,262.5,-267.5,262.5,607.5,SBD,Single-ply,M,5
D. Mynarcik,73.4,75,,Teen 18-19,18-19,205,227.5,-235,227.5,130,137.5,-142.5,137.5,207.5,227.5,240,240,605,SBD,Single-ply,M,6
Steve LeMarie,73.9,75,,Teen 18-19,18-19,220,-227.5,-227.5,220,122.5,-130,130,130,222.5,235,240,240,590,SBD,Single-ply,M,7
K. Mendell,74.2,75,,Teen 18-19,18-19,195,210,-212.5,210,145,155,-157.5,155,195,210,220,220,585,SBD,Single-ply,M,8
G. Soto,74.8,75,,Teen 18-19,18-19,217.5,-240,240,240,85,95,-102.5,95,217.5,237.5,247.5,247.5,582.5,SBD,Single-ply,M,9
Mark Hunter,73.9,75,,Teen 18-19,18-19,-227.5,227.5,-240,227.5,-122.5,122.5,-130,122.5,230,-252.5,-252.5,230,580,SBD,Single-ply,M,10
J. Clark,74.1,75,,Teen 18-19,18-19,-207.5,207.5,212.5,212.5,115,122.5,127.5,127.5,240,-260,-260,240,580,SBD,Single-ply,M,11
K. Lyon,74.1,75,,Teen 18-19,18-19,200,210,-217.5,210,120,125,-130,125,227.5,242.5,-257.5,242.5,577.5,SBD,Single-ply,M,12
Stan Nowacki,74.8,75,,Teen 18-19,18-19,192.5,210,-215,210,-110,-120,120,120,237.5,-255,-255,237.5,567.5,SBD,Single-ply,M,13
D. Sliom,74.5,75,,Teen 18-19,18-19,200,-215,-217.5,200,117.5,122.5,-130,122.5,212.5,-227.5,-242.5,212.5,535,SBD,Single-ply,M,15
R. McMoran,70.3,75,,Teen 18-19,18-19,187.5,200,-207.5,200,110,-115,-115,110,217.5,230,235,235,545,SBD,Single-ply,M,14
Scot Rigby,73.9,75,,Teen 18-19,18-19,-187.5,-192.5,192.5,192.5,95,-105,-105,95,-212.5,-222.5,222.5,222.5,510,SBD,Single-ply,M,16
B. Jacobs,73.4,75,,Teen 18-19,18-19,170,-177.5,-180,170,105,110,,110,205,-220,220,220,500,SBD,Single-ply,M,17
J. Tipton,74.3,75,,Teen 18-19,18-19,185,-200,200,200,105,115,-120,115,185,-205,-205,185,500,SBD,Single-ply,M,18
T. Piha,70.3,75,,Teen 18-19,18-19,185,197.5,-202.5,197.5,-115,-115,-115,,,,,,,SBD,Single-ply,M,DQ
D. Collins,74.3,75,,Teen 18-19,18-19,147.5,,,147.5,-142.5,142.5,-145,142.5,-210,,,,,SBD,Single-ply,M,DQ
Stanley Blazick,73.4,75,,Teen 18-19,18-19,-260,-260,-260,,,,,,,,,,,SBD,Single-ply,M,DQ
Andre Villars,73.9,75,,Teen 18-19,18-19,235,-242.5,-242.5,235,107.5,-115,,107.5,,,,,,SBD,Single-ply,M,DQ
R. Stuf,73.4,75,,Teen 18-19,18-19,-217.5,-217.5,-217.5,,,,,,,,,,,SBD,Single-ply,M,DQ
M. Cooper,74.1,75,,Teen 18-19,18-19,-210,-210,-210,,,,,,,,,,,SBD,Single-ply,M,DQ
Glen Applegate,74.3,75,,Teen 18-19,18-19,-205,-205,-205,,,,,,,,,,,SBD,Single-ply,M,DQ
Hub Aston,81,82.5,,Teen 18-19,18-19,265,277.5,-282.5,277.5,175,187.5,192.5,192.5,237.5,247.5,-255,247.5,717.5,SBD,Single-ply,M,1
Neil Mairs,81.75,82.5,,Teen 18-19,18-19,245,262,-272.5,262,155,165,170,170,250,270,-287.5,270,702.5,SBD,Single-ply,M,2
Sid Brumbach,82,82.5,,Teen 18-19,18-19,260,280,-287.5,280,132.5,140,145,145,242.5,262.5,-272.5,262.5,687.5,SBD,Single-ply,M,3
K. Krzyzaniak,81.25,82.5,,Teen 18-19,18-19,-197.5,197.5,-215,197.5,145,155,160,160,240,257.5,-272.5,257.5,615,SBD,Single-ply,M,4
F. Cooper,79.5,82.5,,Teen 18-19,18-19,177.5,187.5,-195,187.5,137.5,-145,150,150,202.5,215,225,225,562.5,SBD,Single-ply,M,5
C. Stancil,80.5,82.5,,Teen 18-19,18-19,187.5,-200,-200,187.5,130,-135,-135,130,195,212.5,-217.5,212.5,530,SBD,Single-ply,M,6
J. Shrode,81.7,82.5,,Teen 18-19,18-19,187.5,-195,-195,187.5,95,102.5,-110,102.5,205,-227.5,-227.5,205,495,SBD,Single-ply,M,7
J. Trussler,82.5,82.5,,Teen 18-19,18-19,-197.5,197.5,-215,197.5,145,155,160,160,,,,,,SBD,Single-ply,M,DQ
R. Savell,81,82.5,,Teen 18-19,18-19,-227.5,-227.5,-227.5,,,,,,,,,,,SBD,Single-ply,M,DQ
T. Longo,81.4,82.5,,Teen 18-19,18-19,-227.5,-227.5,230,230,,,,,,,,,,SBD,Single-ply,M,DQ
J. Adams,82.2,82.5,,Teen 18-19,18-19,-245,-245,-245,,,,,,,,,,,SBD,Single-ply,M,DQ
Don Beter,89.9,90,,Teen 18-19,18-19,277.5,-295,-295,277.5,180,-187.5,-187.5,180,282.5,295,302.5,302.5,760,SBD,Single-ply,M,1
R. Marinello,89,90,,Teen 18-19,18-19,267.5,277.5,287.5,287.5,157.5,162.5,-167.5,162.5,255,265,-275,265,715,SBD,Single-ply,M,2
A. Powell,89,90,,Teen 18-19,18-19,240,260,-267.5,260,172.5,182.5,-187.5,182.5,240,267.5,-275,267.5,710,SBD,Single-ply,M,3
Steve Lumpee #1,88.4,90,,Teen 18-19,18-19,-245,250,-265,250,152.5,160,-162.5,160,275,290,-300,290,700,SBD,Single-ply,M,4
T. Payne,90,90,,Teen 18-19,18-19,250,270,280,280,137.5,147.5,155,155,147.5,-260,265,265,700,SBD,Single-ply,M,5
A. Sanchez,89.8,90,,Teen 18-19,18-19,250,-275,-275,250,175,190,-192.5,190,245,-265,-265,245,685,SBD,Single-ply,M,6
Ross Kawamoto,88.4,90,,Teen 18-19,18-19,222.5,245,260,260,137.5,147.5,-155,147.5,230,250,267.5,267.5,675,SBD,Single-ply,M,7
David Georges,83,90,,Teen 18-19,18-19,205,-210,-210,205,125,130,137.5,137.5,230,232.5,235,235,577.5,SBD,Single-ply,M,11
M. Turner,90,90,,Teen 18-19,18-19,217.5,-240,240,240,132.5,140,-147.5,140,227,-235,-235,227,607.5,SBD,Single-ply,M,8
J. Callahan,90,90,,Teen 18-19,18-19,-215,215,-227.5,215,142.5,152.5,-162.5,152.5,217.5,232.5,-240,232.5,600,SBD,Single-ply,M,9
E. Kophowski,89.5,90,,Teen 18-19,18-19,207.5,232.5,240,240,107.5,120,-125,120,212.5,237.5,-247.5,237.5,597.5,SBD,Single-ply,M,10
P. Kilbourne,86.8,90,,Teen 18-19,18-19,197.5,-210,-210,197.5,125,130,137.5,137.5,230,232.5,-235,232.5,567.5,SBD,Single-ply,M,12
P. Mortis,90,90,,Teen 18-19,18-19,-205,205,-220,205,107.5,112.5,-117.5,112.5,210,227.5,-232.5,227.5,545,SBD,Single-ply,M,13
E. Berry,82.25,90,,Teen 18-19,18-19,-227.5,-237.5,-240,,,,,,,,,,,SBD,Single-ply,M,DQ
Scott Edminston,99,100,,Teen 18-19,18-19,272.5,-282.5,282.5,282.5,182.5,190,192.5,192.5,272.5,285,-297.5,285,760,SBD,Single-ply,M,1
Jim Fusaro,99.6,100,,Teen 18-19,18-19,260,272.5,-277.5,272.5,177.5,-187.5,-187.5,177.5,-250,250,-272.5,250,700,SBD,Single-ply,M,2
E. McGough,99.4,100,,Teen 18-19,18-19,222.5,-245,-245,222.5,142.5,152.5,-155,152.5,255,287.5,295,295,670,SBD,Single-ply,M,3
Paul Fletcher,93,100,,Teen 18-19,18-19,205,-217.5,217.5,217.5,137.5,147.5,152.5,152.5,222.5,237.5,247.5,247.5,617.5,SBD,Single-ply,M,4
D. Person,97.7,100,,Teen 18-19,18-19,215,-227.5,,215,132.5,-140,140,140,205,227.5,-237.5,227.5,582.5,SBD,Single-ply,M,5
R. Monjure,90.4,100,,Teen 18-19,18-19,-200,-227.5,227.5,227.5,105,112.5,-122.5,112.5,215,235,-250,235,575,SBD,Single-ply,M,6
Bert Clattenburg,91,100,,Teen 18-19,18-19,-225,-235,,,,,,,,,,,,SBD,Single-ply,M,DQ
C. Wallen,97.75,100,,Teen 18-19,18-19,210,-227.5,,210,,,,,,,,,,SBD,Single-ply,M,DQ
Mark Schellen,108.8,110,,Teen 18-19,18-19,332.5,-355,365,365,217.5,225,-227.5,225,327.5,-362.5,,327.5,917.5,SBD,Single-ply,M,1
Dave Pasanella,109,110,,Teen 18-19,18-19,327.5,-350,-355,327.5,205,217.5,-227.5,217.5,305,340,-362.5,340,885,SBD,Single-ply,M,2
Tom Phil,107.4,110,,Teen 18-19,18-19,282.5,295,305,305,185,197.5,-205,197.5,272.5,282.5,295,295,797.5,SBD,Single-ply,M,3
D. Douglas,108.4,110,,Teen 18-19,18-19,272.5,-295,-305,272.5,207.5,-215,,207.5,250,272.5,287.5,287.5,767.5,SBD,Single-ply,M,4
Joseph Kielur,108.8,110,,Teen 18-19,18-19,265,280,,280,150,165,172.5,172.5,287.5,305,-320,305,757.5,SBD,Single-ply,M,5
Casey Sanders,102.6,110,,Teen 18-19,18-19,240,250,-257.5,250,182.5,190,195,195,237.5,-247.5,-247.5,237.5,682.5,SBD,Single-ply,M,6
S. Helton,107,110,,Teen 18-19,18-19,-227.5,-227.5,227.5,227.5,152.5,160,-165,160,-227.5,227.5,-242.5,227.5,615,SBD,Single-ply,M,7
J. Hoover,101.6,110,,Teen 18-19,18-19,-222.5,-237.5,-237.5,,,,,,,,,,,SBD,Single-ply,M,DQ
Shawn Dear,119.8,125,,Teen 18-19,18-19,285,307.5,-320,307.5,160,172.5,182.5,182.5,285,300,310,310,800,SBD,Single-ply,M,1
D. Kirsch,118.2,125,,Teen 18-19,18-19,287.5,-312.5,-317.5,287.5,-160,-165,165,165,287.5,307.5,-330,307.5,760,SBD,Single-ply,M,2
V. Cosenza,117.8,125,,Teen 18-19,18-19,287,-305,-305,287,152.5,172.5,-182.5,172.5,180,250,272.5,272.5,732.5,SBD,Single-ply,M,3
T. Marecic,119.6,125,,Teen 18-19,18-19,-257.5,257.5,282.5,282.5,180,187.5,-197.5,187.5,262.5,-280,-280,262.5,732.5,SBD,Single-ply,M,4
John Sefcik,121.8,125,,Teen 18-19,18-19,-252.5,252.5,-272.5,252.5,182.5,192.5,-200,192.5,252.5,-267.5,-272.5,252.5,697.5,SBD,Single-ply,M,5
S. Tedeschi,110.6,125,,Teen 18-19,18-19,210,-222.5,-222.5,210,-125,130,-132.5,130,242.5,257.5,-260,257.5,597.5,SBD,Single-ply,M,6
M. Kavarian,117.9,125,,Teen 18-19,18-19,-227.5,-227.5,-227.5,,,,,,,,,,,SBD,Single-ply,M,DQ
George Hechter,130.6,125+,,Teen 18-19,18-19,310,327.5,345,345,205,-220,220,220,300,330,-347.5,330,895,SBD,Single-ply,M,1
T. Drake,125.6,125+,,Teen 18-19,18-19,-280,280,-297.5,280,167.5,180,187.5,187.5,265,-280,-280,265,732.5,SBD,Single-ply,M,2
B. Lahanis,134.7,125+,,Teen 18-19,18-19,190,217.5,227.5,227.5,127.5,145,-152.5,145,217.5,227.5,242.5,242.5,615,SBD,Single-ply,M,3
John Plambeck,188.5,125+,,Teen 18-19,18-19,205,227.5,-257.5,227.5,117.5,125,-132.5,125,205,227.5,-250,227.5,580,SBD,Single-ply,M,4
Gary Aprahamian,166.2,125+,,Teen 18-19,18-19,365,-410,,365,,,,,,,,,,SBD,Single-ply,M,DQ
Greg Crowe,138.8,125+,,Teen 18-19,18-19,-280,-280,-280,,,,,,,,,,,SBD,Single-ply,M,DQ
Charles Henderson,131.1,125+,,Teen 18-19,18-19,-287.5,-312.5,-320,,,,,,,,,,,SBD,Single-ply,M,DQ
