Name,Sex,Age,Division,Equipment,BodyweightKg,WeightClassKg,Squat1Kg,Squat2Kg,Squat3Kg,Best3SquatKg,Bench1Kg,Bench2Kg,Bench3Kg,Best3BenchKg,Deadlift1Kg,Deadlift2Kg,Deadlift3Kg,Best3DeadliftKg,TotalKg,Event,Place,Tested
Adam Hindle,M,33,M_O_CR_BPU,Wraps,165.8,140+,300,320,-330,320,200,212.5,,212.5,320,-340,,320,852.5,SBD,1,No
Alexandra Morrell,F,34,F_O_CR_ABPU,Wraps,65.55,67.5,95,100,-105,100,55,57.5,60,60,120,125,127.5,127.5,287.5,SBD,2,Yes
Aiden Pattison,M,19,M_T3_CR_ABPU,Wraps,139.45,140,200,220,240,240,130,150,-160,150,200,220,240,240,630,SBD,1,Yes
Al Brown,M,37,M_O_M_BPU,Multi-ply,106.3,110,,,,,210,,,210,,,,,210,B,1,No
Aleksandra Kowierec,F,25,F_O_R_ABPU,Raw,65.6,67.5,-100,107.5,112.5,112.5,55,57.5,60,60,110,115,120,120,292.5,SBD,1,Yes
Alex Dean,M,26,M_O_R_BPU,Raw,72.1,75,137.5,-145,145,145,105,112.5,120,120,150,162.5,-172.5,162.5,427.5,SBD,2,No
Alex Motrey,F,33,F_O_CR_ABPU,Wraps,65.55,67.5,-95,,,,,,,,,,,,,SBD,DQ,Yes
Amari Robinson,M,23,M_J_R_ABPU,Raw,75,75,170,185,195,195,135,137.5,140,140,210,220,227.5,227.5,562.5,SBD,1,Yes
Amber Schonert,F,26,F_O_R_BPU,Raw,74.85,75,-130,140,155,155,80,90,102.5,102.5,140,155,-167.5,155,412.5,SBD,1,No
Anthony Read,M,31,M_O_CR_BPU,Wraps,138.5,140,210,220,230,230,160,170,-180,170,220,245,-260,245,645,SBD,3,No
Ben Smith #2,M,34,M_O_CR_BPU,Wraps,132.35,140,200,210,220,220,180,190,,190,290,,,290,700,SBD,2,No
Ben Flawith,M,22,M_J_CR_ABPU,Wraps,129.25,140,250,270,-290,270,175,185,-192.5,185,260,290,-300,290,745,SBD,1,Yes
Callum Pickering,M,27,M_O_CR_ABPU,Wraps,87.8,90,185,-192.5,195,195,100,115,-120,115,200,215,225,225,535,SBD,1,Yes
Carl Thompson #1,M,26,M_O_CR_BPU,Wraps,121.3,125,375,-402.5,,375,215,230,232.5,232.5,300,317.5,-325,317.5,925,SBD,1,No
Chardonnay Holwell-Russell,F,15,F_T1_R_ABPU,Raw,80,82.5,110,115,120,120,45,50,-55,50,110,117.5,125,125,295,SBD,1,Yes
Charlotte Bogh,F,42,F_M1_R_ABPU,Raw,58.6,60,45,55,60,60,30,35,37.5,37.5,70,80,92.5,92.5,190,SBD,1,Yes
Chloe Marshall,F,30,F_O_R_ABPU,Raw,64.05,67.5,45,52.5,60,60,35,37.5,-40,37.5,70,75,80,80,177.5,SBD,3,Yes
Chris Wehbe,M,36,M_O_R_ABPU,Raw,81.9,82.5,,,,,,,,,205,230,-235,230,230,D,1,Yes
Chris Jenkins #4,M,38,M_O_R_BPU,Raw,,90,,,,,,,,,,,,,,SBD,NS,No
Cleary Clifford,F,43,F_M1_CR_ABPU,Wraps,82.3,82.5,100,-110,-110,100,47.5,50,-52.5,50,125,-132.5,,125,275,SBD,1,Yes
Dan Watkins,M,31,M_O_CR_ABPU,Wraps,81.3,82.5,180,200,215,215,120,125,-130,125,230,240,260,260,600,SBD,1,Yes
Daniel Williams,M,29,M_O_CR_BPU,Wraps,,110,,,,,,,,,,,,,,SBD,NS,No
Daniel Bassett,M,42,M_M1_CR_BPU,Wraps,80.1,82.5,145,-155,,145,75,82.5,-90,82.5,200,215,-230,215,442.5,SBD,1,No
David Aboagye,M,41,M_O_R_ABPU,Raw,104.5,110,180,185,195,195,102.5,107.5,115,115,-180,180,190,190,500,SBD,1,Yes
David Wade,M,45,M_M2_R_ABPU,Raw,98.8,100,140,150,,150,100,105,-110,105,185,-195,-195,185,440,SBD,1,Yes
Diane Leach,F,60,F_M5_R_ABPU,Raw,108.95,90+,,,,,,,,,90,100,110,110,110,D,1,Yes
Dylan Thomas,M,46,M_M2_CR_ABPU,Wraps,,82.5,,,,,,,,,,,,,,SBD,NS,Yes
Ebow Crankson,M,19,M_T3_CR_BPU,Wraps,89.5,90,200,210,217.5,217.5,135,140,145,145,240,260,272.5,272.5,635,SBD,1,No
Eliza Jobbins,F,19,F_T3_R_ABPU,Raw,59.7,60,77.5,82.5,-87.5,82.5,32.5,35,-37.5,35,90,95,100,100,217.5,SBD,1,Yes
Erin Seaman,F,23,F_J_R_ABPU,Raw,69.3,75,,,,,,,,,125,-135,-135,125,125,D,1,Yes
Francesca Dennis,F,23,F_J_R_BPU,Raw,75,75,,,,,-60,60,-65,60,,,,,60,B,1,No
Francesca Dennis,F,23,F_J_R_BPU,Raw,75,75,,,,,,,,,125,130,132.5,132.5,132.5,D,1,No
Gareth Ridley,M,39,M_O_CR_ABPU,Wraps,66.05,67.5,-125,-125,-125,,65,70,,70,155,165,175,175,,SBD,DQ,Yes
Hefin Evans,M,33,M_O_CR_ABPU,Wraps,97.9,100,170,185,205,205,160,-170,-170,160,200,215,230,230,595,SBD,2,Yes
Hollie Tucker,F,30,F_O_CR_BPU,Wraps,,75,,,,,,,,,,,,,,SBD,NS,No
Iain Connor,M,41,M_M1_M_BPU,Multi-ply,124.35,125,,,,,325,-342.5,-342.5,325,,,,,325,B,1,No
Inara Kuisele,F,35,F_O_CR_BPU,Wraps,106.1,90+,115,125,135,135,65,70,80,80,150,165,175,175,390,SBD,1,No
Jack Coyne,M,28,M_O_R_ABPU,Raw,,125,,,,,,,,,,,,,,SBD,NS,Yes
Jack Howe,M,27,M_O_R_ABPU,Raw,81.95,82.5,125,130,135,135,125,-127.5,-127.5,125,175,185,200,200,460,SBD,2,Yes
Jack Hulcoop,M,29,M_O_CR_BPU,Wraps,,90,,,,,,,,,,,,,,SBD,NS,No
Jake Simpson #1,M,22,M_J_CR_BPU,Wraps,106.5,110,200,,,200,165,177.5,190,190,200,-320,,200,590,SBD,2,No
James Williams #13,M,35,M_O_R_BPU,Raw,134.25,140,,,,,240,252.5,260,260,,,,,260,B,1,No
Jenny Sibley,F,26,F_O_R_ABPU,Raw,58.25,60,62.5,70,77.5,77.5,47.5,52.5,-57.5,52.5,97.5,105,-112.5,105,235,SBD,1,Yes
Joeseph Sheldrake,M,30,M_O_R_ABPU,Raw,,100,,,,,,,,,,,,,,SBD,NS,Yes
John Mitchell,M,27,M_O_CR_ABPU,Wraps,97,100,160,190,-200,190,140,150,155,155,190,210,222.5,222.5,567.5,SBD,3,Yes
Johnny Nicholls,M,17,M_T2_R_ABPU,Raw,55.75,56,72.5,77.5,80,80,60,65,70,70,105,110,125,125,275,SBD,1,Yes
Johnny Wade,M,50,M_O_CR_ABPU,Wraps,82.3,82.5,165,175,182.5,182.5,125,-130,-130,125,220,230,-240,230,537.5,SBD,2,Yes
Judyta Zisch,F,23,F_J_CR_ABPU,Wraps,86.8,90,115,-120,120,120,52.5,55,-57.5,55,117.5,125,130,130,305,SBD,1,Yes
Kara Shaw,F,31,F_O_CR_BPU,Wraps,65.15,67.5,90,100,-105,100,57.5,-62.5,-62.5,57.5,135,142.5,-150,142.5,300,SBD,1,No
Katie Austin,F,31,F_O_CR_ABPU,Wraps,63,67.5,-100,-105,105,105,70,-75,75,75,120,125,130,130,310,SBD,1,Yes
Kurt Beech,M,29,M_O_M_BPU,Multi-ply,89.7,90,280,300,,300,185,,,185,270,285,-300,285,770,SBD,1,No
Leandrie Turner,F,31,F_O_CR_ABPU,Wraps,65.65,67.5,-80,80,-90,80,40,45,-50,45,100,110,115,115,240,SBD,3,Yes
Leighanne Russell,F,38,F_O_R_ABPU,Raw,98.9,90+,140,-147.5,-150,140,62.5,67.5,70,70,140,147.5,-150,147.5,357.5,SBD,1,Yes
Lewis Deeley,M,28,M_O_CR_ABPU,Wraps,153.3,140+,235,255,-270,255,135,145,150,150,230,250,270,270,675,SBD,1,Yes
Lewis Lacey,M,23,M_J_CR_BPU,Wraps,87.4,90,210,220,230,230,135,142.5,,142.5,275,290,305,305,677.5,SBD,1,No
Lisa Grant,F,29,F_O_CR_ABPU,Wraps,,60,,,,,,,,,,,,,,SBD,NS,Yes
Luke Hayward,M,34,M_O_CR_BPU,Wraps,98.3,100,270,285,,285,200,210,-220,210,300,320,-340,320,815,SBD,1,No
Matt Mawson,M,45,M_M2_CR_ABPU,Wraps,98.4,100,170,185,200,200,120,125,130,130,200,-212.5,212.5,212.5,542.5,SBD,1,Yes
Michael Delastie,M,27,M_O_CR_BPU,Wraps,103.9,110,250,270,-280,270,150,160,170,170,225,240,250,250,690,SBD,1,No
Mike Haywood,M,51,M_M3_R_BPU,Raw,,100,,,,,,,,,,,,,,B,NS,No
Neil Bacon,M,62,M_M5_R_BPU,Raw,81.4,82.5,,,,,80,87.5,95,95,,,,,95,B,1,No
Nick Mendham,M,27,M_O_R_ABPU,Raw,80.8,82.5,155,-170,-170,155,110,-120,-120,110,190,220,-240,220,485,SBD,1,Yes
Nicola Vaughan-Ellis,F,56,F_M4_CR_ABPU,Wraps,102.5,90+,80,85,-90,85,35,40,-42.5,40,95,102.5,-107.5,102.5,227.5,SBD,1,Yes
Pete Tryner,M,47,M_O_CR_ABPU,Wraps,92.05,100,180,190,,190,135,140,,140,250,265,,265,595,SBD,1,Yes
Peter King,M,22,M_J_CR_BPU,Wraps,81.55,82.5,180,200,210,210,115,125,135,135,210,230,-250,230,575,SBD,1,No
Phil Horwood,M,34,M_O_M_ABPU,Multi-ply,113.8,125,310,-330,330,330,-230,-230,-235,,,,,,,SBD,DQ,Yes
Piotr Sulecki,M,30,M_O_R_BPU,Raw,86.7,90,185,195,205,205,127.5,135,140,140,210,225,-235,225,570,SBD,1,No
Piotr Sulecki,M,30,M_O_R_BPU,Raw,86.7,90,,,,,127.5,135,140,140,,,,,140,B,1,
Piotr Sulecki,M,30,M_O_R_BPU,Raw,86.7,90,,,,,,,,,210,225,-235,225,225,D,1,
Poorna Bell,F,38,F_O_R_ABPU,Raw,61.3,67.5,80,85,-90,85,45,47.5,50,50,110,120,125,125,260,SBD,2,Yes
Rachel Normington,F,28,F_O_R_ABPU,Raw,80.55,82.5,85,90,-100,90,50,-55,60,60,115,125,132.5,132.5,282.5,SBD,1,Yes
Ricky Moore,M,39,M_O_CR_BPU,Wraps,,100,,,,,,,,,,,,,,SBD,NS,No
Romesh Tenuwera,M,36,M_O_R_ABPU,Raw,49.45,52,-85,85,87.5,87.5,55,60,-62.5,60,120,130,135,135,282.5,SBD,1,Yes
Ross McHale,M,26,M_O_CR_ABPU,Wraps,,82.5,,,,,,,,,,,,,,SBD,NS,Yes
Rudy Arrimar,M,20,M_J_R_ABPU,Raw,,75,,,,,,,,,,,,,,SBD,NS,Yes
Ryan Godding,M,34,M_O_S_ABPU,Single-ply,95.05,100,-250,250,-270,250,170,180,-190,180,270,300,-310,300,730,SBD,1,Yes
Sam Meade,M,25,M_O_CR_BPU,Wraps,,140,,,,,,,,,,,,,,SBD,NS,No
Samantha Macdonald,F,38,F_O_CR_BPU,Wraps,80.85,82.5,120,125,130,130,45,55,-62.5,55,140,150,155,155,340,SBD,1,No
Samuel Godfrey-Mayes,M,27,M_O_CR_ABPU,Wraps,90.4,100,-200,-200,200,200,105,110,-112.5,110,205,215,225,225,535,SBD,4,Yes
Samuel James Conway,M,37,M_O_CR_ABPU,Wraps,,125,,,,,,,,,,,,,,SBD,NS,Yes
Scott Neary,M,29,M_O_M_ABPU,Multi-ply,113.7,125,-300,300,330,330,-202.5,232.5,-250,232.5,240,260,-270,260,822.5,SBD,1,Yes
Sheryl Morris,F,29,F_O_R_ABPU,Raw,,67.5,,,,,,,,,,,,,,SBD,NS,Yes
Sohail Rashid,M,34,M_O_R_BPU,Raw,73.85,75,165,172.5,175,175,130,140,-147.5,140,215,-225,-225,215,530,SBD,1,No
Stefan Putter,M,28,M_O_R_ABPU,Raw,87.3,90,200,220,235,235,150,160,165,165,260,280,300,300,700,SBD,1,Yes
Steve Knight #2,M,44,M_O_R_BPU,Raw,88.7,90,140,160,180,180,140,155,160,160,180,200,220,220,560,SBD,2,No
Steven Middleton-Lowes,M,48,M_M2_R_ABPU,Raw,109.45,110,130,,,130,130,,,130,130,,,130,390,SBD,1,Yes
Stuart Ogden,M,37,M_O_CR_ABPU,Wraps,,75,,,,,,,,,,,,,,SBD,NS,Yes
Tom Gregory,M,35,M_O_CR_BPU,Wraps,142.7,140+,-300,300,-320,300,170,-175,,170,270,290,-300,290,760,SBD,2,No
Tom Hudson,M,22,M_J_CR_BPU,Wraps,106.95,110,250,-280,280,280,150,170,-175,170,300,317.5,-332.5,317.5,767.5,SBD,1,No
Tom Price,M,29,M_O_CR_BPU,Wraps,128.1,140,180,220,,220,220,-252.5,,220,260,,,260,700,SBD,1,No
William Newton #1,M,33,M_O_CR_ABPU,Wraps,120.15,125,300,-315,,300,170,-175,,170,-340,340,,340,810,SBD,1,Yes
Wylie Sung,M,31,M_O_CR_BPU,Wraps,82.5,82.5,250,270,282.5,282.5,150,160,162.5,162.5,280,305,315,315,760,SBD,1,No
Zachary Ellington,M,23,M_J_CR_ABPU,Wraps,98.6,100,130,150,160,160,75,82.5,-90,82.5,170,185,190,190,432.5,SBD,1,Yes
