Name,BirthDate,Division,BodyweightKg,WeightClassKg,Squat1Kg,Squat2Kg,Squat3Kg,Best3SquatKg,Bench1Kg,Bench2Kg,Bench3Kg,Best3BenchKg,Deadlift1Kg,Deadlift2Kg,Deadlift3Kg,Best3DeadliftKg,TotalKg,Place,Sex,Event,Equipment
Alex Galant,1947-05-13,M-M3a,55.24,56,95,-142.5,,95,42.5,,,42.5,100,,,100,237.5,1,M,SBD,Single-ply
Eric Kupperstein,1966-04-01,M-M1a,59.78,60,215,235,-242.5,235,125,-135,-135,125,220,240,260,260,620,1,M,SBD,Single-ply
Phil Drenik,1956-07-02,M-M2a,58.58,60,145,155,162.5,162.5,82.5,92.5,-97.5,92.5,167.5,185,-190,185,440,1,M,SBD,Single-ply
Lloyd Weinstein,1959-05-04,M-M2a,67.16,67.5,210,227.5,-235,227.5,120,127.5,-137.5,127.5,212.5,230,-255,230,585,1,M,SBD,Single-ply
Brian Foddrill,1964-04-09,M-M1b,66.36,67.5,187.5,-202.5,202.5,202.5,125,140,142.5,142.5,215,-222.5,-222.5,215,560,2,M,SBD,Single-ply
Steve Lewis,1962-07-27,M-M1b,65.88,67.5,205,212.5,-217.5,212.5,120,-125,125,125,205,212.5,-222.5,212.5,550,3,M,SBD,Single-ply
Paul Mears #1,1953-05-29,M-M2b,66.46,67.5,165,175,-180,175,85,90,92.5,92.5,185,195,,195,462.5,1,M,SBD,Single-ply
Jeff Jacobs,1947-01-17,M-M3a,66.72,67.5,185,200,210,210,105,110,115,115,200,220,227.5,227.5,552.5,1,M,SBD,Single-ply
Robert Coleman,1948-01-20,M-M3a,63.04,67.5,147.5,157.5,-162.5,157.5,70,-75,-75,70,120,-125,-125,120,347.5,2,M,SBD,Single-ply
Mike Lawson,1941-02-20,M-M3b,66.18,67.5,120,137.5,150,150,-95,-95,-95,,145,170,-175,170,,DQ,M,SBD,Single-ply
Richard Nolan,1926-02-03,M-M5a,66.32,67.5,65,72.5,,72.5,60,62.5,-63,62.5,115,,-127.5,115,250,1,M,SBD,Single-ply
John Dalessio,1968-06-20,M-M1a,74.6,75,235,-247.5,247.5,247.5,155,-167.5,167.5,167.5,245,255,265,265,680,1,M,SBD,Single-ply
Donovan Thompson,1966-05-17,M-M1a,74.88,75,240,247.5,255,255,-187.5,-187.5,187.5,187.5,220,232.5,237.5,237.5,680,2,M,SBD,Single-ply
Rick Bertel,1966-09-04,M-M1a,74.38,75,195,-205,205,205,115,-120,-120,115,200,215,-220,215,535,3,M,SBD,Single-ply
Carlos Lewis,1958-07-02,M-M2a,75,75,237.5,250,257.5,257.5,142.5,147.5,152.5,152.5,215,230,-235,230,640,1,M,SBD,Single-ply
Kevin Bolen,1959-04-24,M-M2a,74.48,75,220,237.5,-245,237.5,130,137.5,140,140,220,-237.5,-237.5,220,597.5,2,M,SBD,Single-ply
Mark Cucinella,1950-06-14,M-M2b,74.68,75,195,-205,-205,195,130,140,-145,140,200,205,-212.5,205,540,1,M,SBD,Single-ply
Bill Weinstock,1946-10-18,M-M3a,73.16,75,160,165,-167.5,165,82.5,85,-87.5,85,190,195,-200,195,445,1,M,SBD,Single-ply
Art Menton,1942-06-13,M-M3b,73.7,75,200,-205,205,205,100,-110,-110,100,200,215,222.5,222.5,527.5,1,M,SBD,Single-ply
Ben Brent,1937-11-14,M-M4a,74.06,75,-187.5,187.5,-197.5,187.5,85,92.5,95,95,215,-222.5,-222.5,215,497.5,1,M,SBD,Single-ply
Daniel Goodwin,1932-01-13,M-M4b,72.92,75,72.5,-85,-102.5,72.5,70,72.5,-75,72.5,125,142.5,-157.5,142.5,287.5,1,M,SBD,Single-ply
Tom Scagliarini,1966-02-23,M-M1a,82.48,82.5,222.5,240,247.5,247.5,142.5,152.5,157.5,157.5,205,-217.5,217.5,217.5,622.5,1,M,SBD,Single-ply
Ronald Legarreta,1966-07-09,M-M1a,80.94,82.5,207.5,220,227.5,227.5,-155,155,-162.5,155,205,227.5,235,235,617.5,2,M,SBD,Single-ply
Jonathan Gallmeier,1968-11-07,M-M1a,80.32,82.5,177.5,-190,190,190,110,120,-130,120,177.5,190,-200,190,500,3,M,SBD,Single-ply
Ron Garofalo,1961-01-06,M-M1b,81.26,82.5,250,282.5,-292.5,282.5,175,182.5,-187.5,182.5,260,-307.5,-307.5,260,725,1,M,SBD,Single-ply
Joe Braca,1962-11-28,M-M1b,80.94,82.5,230,250,260,260,162.5,-170,-170,162.5,275,-287.5,-287.5,275,697.5,2,M,SBD,Single-ply
Francis Kozub,1963-04-26,M-M1b,81.3,82.5,197.5,217.5,225,225,147.5,155,160,160,200,220,232.5,232.5,617.5,3,M,SBD,Single-ply
Frank Agos,1962-10-08,M-M1b,81.78,82.5,-197.5,202.5,-212.5,202.5,-152.5,152.5,-162.5,152.5,250,-262.5,-265,250,605,4,M,SBD,Single-ply
Joel Ford,1963-02-10,M-M1b,81.84,82.5,192.5,212.5,220,220,152.5,162.5,-170,162.5,207.5,222.5,-235,222.5,605,5,M,SBD,Single-ply
Randy Stone,1956-08-24,M-M2a,81.16,82.5,240,255,-272.5,255,152.5,160,-170,160,245,-257.5,257.5,257.5,672.5,1,M,SBD,Single-ply
Kent Walton,1957-07-15,M-M2a,82.5,82.5,205,212.5,220,220,-130,130,-137.5,130,-220,225,237.5,237.5,587.5,2,M,SBD,Single-ply
William Kellett,1957-05-20,M-M2a,79.3,82.5,-130,130,142.5,142.5,95,102.5,-110,102.5,180,190,-200,190,435,3,M,SBD,Single-ply
Bill Clayton,1953-11-12,M-M2b,81.36,82.5,190,-207.5,-212.5,190,130,-142.5,-142.5,130,190,200,-210,200,520,1,M,SBD,Single-ply
Walter Terry,1951-10-24,M-M2b,82.24,82.5,160,175,182.5,182.5,120,130,-137.5,130,172.5,-180,-180,172.5,485,2,M,SBD,Single-ply
John Killin,1949-07-02,M-M2b,81.74,82.5,160,167.5,172.5,172.5,100,105,-112.5,105,200,-210,-215,200,477.5,3,M,SBD,Single-ply
Robert Contreras,1947-03-08,M-M3a,80.04,82.5,195,205,215,215,130,140,-145,140,207.5,217.5,230,230,585,1,M,SBD,Single-ply
Alan Tepper,1945-07-10,M-M3a,80.74,82.5,175,-182.5,185,185,132.5,-140,140,140,210,222.5,227.5,227.5,552.5,2,M,SBD,Single-ply
Dan Martin,1940-05-31,M-M3b,80.86,82.5,200,215,-220,215,-115,-130,-130,,205,237.5,-250,237.5,,DQ,M,SBD,Single-ply
Jimmie Espinoza,1941-12-31,M-M3b,80.58,82.5,150,160,167.5,167.5,135,137.5,-140,137.5,172.5,182.5,187.5,187.5,492.5,1,M,SBD,Single-ply
Jim Lyons,1940-09-12,M-M3b,81,82.5,182.5,-195,-195,182.5,112.5,-120,-120,112.5,165,175,-182.5,175,470,2,M,SBD,Single-ply
Ethan Zachman,1989-11-03,M-G,87.3,90,220,-262.5,-275,220,137.5,150,-165,150,182.5,-227.5,227.5,227.5,597.5,G,M,SBD,Single-ply
Craig Terry,1964-09-11,M-M1a,89.9,90,280,302.5,310,310,-160,160,167.5,167.5,312.5,337.5,343,343,820.5,1,M,SBD,Single-ply
Troy Gibson,1965-02-07,M-M1a,88.4,90,-265,-282.5,282.5,282.5,215,-222.5,222.5,222.5,-272.5,-272.5,272.5,272.5,777.5,2,M,SBD,Single-ply
Mike Jarrett,1965-02-17,M-M1a,88.9,90,265,-295,-305,265,172.5,-182.5,-182.5,172.5,262.5,282.5,-290,282.5,720,3,M,SBD,Single-ply
Gregory Jones,1961-06-12,M-M1b,89.9,90,290,302.5,307.5,307.5,-210,-210,-210,,-210,,,,,DQ,M,SBD,Single-ply
David Ricks,1959-07-27,M-M1b,88.4,90,315,332.5,342.5,342.5,202.5,217.5,-227.5,217.5,300,317.5,330.5,330.5,890.5,1,M,SBD,Single-ply
Jerry Dally,1960-09-03,M-M1b,89,90,227.5,242.5,-247.5,242.5,137.5,-145,-145,137.5,237.5,255,-265,255,635,2,M,SBD,Single-ply
David Wiley,1955-09-06,M-M2a,88.8,90,227.5,242.5,250,250,137.5,152.5,-157.5,152.5,192.5,217.5,222.5,222.5,625,1,M,SBD,Single-ply
Gary Grahn,1955-11-17,M-M2a,89.4,90,177.5,192.5,200,200,130,137.5,-142.5,137.5,175,195,207.5,207.5,545,2,M,SBD,Single-ply
Michael Lambur,1952-10-29,M-M2b,83.1,90,185,197.5,205,205,-102.5,-102.5,-102.5,,200,-215,-215,200,,DQ,M,SBD,Single-ply
Mick Stevens,1950-05-20,M-M2b,88.2,90,-197.5,-197.5,-197.5,,,,,,,,,,,DQ,M,SBD,Single-ply
Larry Robinson,1953-08-29,M-M2b,89.8,90,165,-180,182.5,182.5,120,127.5,-132.5,127.5,190,217.5,227.5,227.5,537.5,1,M,SBD,Single-ply
Ray Penland,1952-01-12,M-M2b,89.4,90,150,165,175,175,110,120,-125,120,185,195,202.5,202.5,497.5,2,M,SBD,Single-ply
Fred Rice,1944-12-18,M-M3a,89.3,90,210,227.5,-230,227.5,97.5,105,110,110,247.5,-250,255,255,592.5,1,M,SBD,Single-ply
Delvan Worley,1949-04-18,M-M3a,89,90,235,245,-250,245,87.5,92.5,95,95,230,242.5,-245,242.5,582.5,2,M,SBD,Single-ply
Jim Yakubovsky,1947-05-01,M-M3a,89.2,90,-202.5,202.5,-217.5,202.5,120,127.5,-137.5,127.5,67.5,-80,-80,67.5,397.5,3,M,SBD,Single-ply
Jim Stoval,1943-07-21,M-M3b,87.6,90,160,190,-205,190,100,110,-112.5,110,182.5,197.5,-210,197.5,497.5,1,M,SBD,Single-ply
Rip Stahura,1943-11-02,M-M3b,87.6,90,107.5,120,132.5,132.5,55,-60,-60,55,117.5,132.5,142.5,142.5,330,2,M,SBD,Single-ply
Tom O'Keefe,1935-12-31,M-M4a,87,90,110,125,-132.5,125,-102.5,-102.5,-102.5,,142.5,152.5,160,160,,DQ,M,SBD,Single-ply
Scott Waits,1965-08-08,M-M1a,99.9,100,300,310,317.5,317.5,-210,210,-215,210,250,260,270,270,797.5,1,M,SBD,Single-ply
Rodney Wood,1967-07-17,M-M1a,98.82,100,285,295,-310,295,205,220,235,235,-242.5,242.5,-265,242.5,772.5,2,M,SBD,Single-ply
John Demchak,1967-07-14,M-M1a,99.48,100,245,257.5,-265,257.5,170,180,190,190,220,237.5,252.5,252.5,700,3,M,SBD,Single-ply
John Hanson,1964-11-03,M-M1a,99.84,100,227.5,-237.5,-237.5,227.5,145,152.5,157.5,157.5,207.5,215,227.5,227.5,612.5,4,M,SBD,Single-ply
Julian Ulvang,1962-12-10,M-M1b,95.92,100,280,-287.5,-287.5,280,-202.5,-202.5,-202.5,,,,,,,DQ,M,SBD,Single-ply
Doug Currence,1959-07-06,M-M1b,99.58,100,267.5,287.5,-295,287.5,-200,-215,-215,,,,,,,DQ,M,SBD,Single-ply
John Hare,1961-02-03,M-M1b,97.7,100,245,265,282.5,282.5,200,-217.5,217.5,217.5,240,262.5,-272.5,262.5,762.5,1,M,SBD,Single-ply
Bruce Thomas,1963-05-16,M-M1b,97.6,100,250,275,-282.5,275,150,162.5,-170,162.5,265,-280,-280,265,702.5,2,M,SBD,Single-ply
Mitch Edelstein,1962-05-25,M-M1b,99.86,100,252.5,-262.5,262.5,262.5,102.5,127.5,-137.5,127.5,272.5,285,290,290,680,3,M,SBD,Single-ply
James Henderson #2,1961-05-27,M-M1b,99,100,240,250,265,265,145,160,162.5,162.5,240,250,-255,250,677.5,4,M,SBD,Single-ply
Tim Tomjack,1958-09-18,M-M2a,99.58,100,195,205,220,220,-192.5,-192.5,-192.5,,200,227.5,-230,227.5,,DQ,M,SBD,Single-ply
Mark Salansky,1958-06-18,M-M2a,98.32,100,-247.5,-247.5,-247.5,,-192.5,192.5,-210,192.5,227.5,245,-257.5,245,,DQ,M,SBD,Single-ply
Mike Bridges,1957-02-01,M-M2a,94.84,100,272.5,322.5,345,345,205,227.5,241,241,250,272.5,-325.5,272.5,858.5,1,M,SBD,Single-ply
James Bell,1955-06-13,M-M2a,97.76,100,220,230,-250,230,127.5,137.5,147.5,147.5,205,225,240,240,617.5,2,M,SBD,Single-ply
Kelly Parrson,1958-04-18,M-M2a,95.06,100,135,-150,-150,135,90,95,-100,95,170,-180,-180,170,400,3,M,SBD,Single-ply
Floyd Givens,1951-10-07,M-M2b,99.2,100,260,287.5,302.5,302.5,-192.5,-192.5,192.5,192.5,277.5,292.5,-307.5,292.5,787.5,1,M,SBD,Single-ply
Ralph Brown,1951-08-15,M-M2b,98.36,100,232.5,252.5,265,265,170,-177.5,-177.5,170,205,227.5,-237.5,227.5,662.5,2,M,SBD,Single-ply
Gary Edwards,1953-05-21,M-M2b,98.06,100,200,-227.5,227.5,227.5,167.5,-180,-180,167.5,-235,235,-267.5,235,630,3,M,SBD,Single-ply
Roger Silva,1953-04-13,M-M2b,97.86,100,217.5,227.5,-240,227.5,127.5,137.5,145,145,-227.5,227.5,-240,227.5,600,4,M,SBD,Single-ply
Steve Harms,1952-09-25,M-M2b,95.06,100,140,160,-200,160,175,185,-192.5,185,160,170,-180,170,515,5,M,SBD,Single-ply
David Clark,1948-02-05,M-M3a,98.42,100,205,210,-217.5,210,160,165,-170,165,262.5,270,275,275,650,1,M,SBD,Single-ply
Al Williamson,1943-11-04,M-M3b,98.86,100,225,237.5,250,250,135,145,,145,217.5,-230,230,230,625,1,M,SBD,Single-ply
John Wightman,1943-07-26,M-M3b,93.04,100,92.5,100,105,105,-72.5,80,85,85,120,127.5,135,135,325,2,M,SBD,Single-ply
Raymond Curtis,1932-10-23,M-M4b,91.4,100,-97.5,97.5,110,110,-105,-105,105,105,135,155,-160,155,370,1,M,SBD,Single-ply
Al Fritz,1968-06-12,M-M1a,109.34,110,-335,340,-352.5,340,222.5,-227.5,-227.5,222.5,292.5,-302.5,-305,292.5,855,1,M,SBD,Single-ply
James Harvey,1963-03-26,M-M1b,108.76,110,260,-275,,260,-220,-222.5,-222.5,,-200,-200,-200,,,DQ,M,SBD,Single-ply
Jeff Douglas #1,1963-05-20,M-M1b,109.8,110,345,-360,360,360,232.5,237.5,242.5,242.5,290,305,317.5,317.5,920,1,M,SBD,Single-ply
Darrell Branson,1959-11-08,M-M1b,107.7,110,272.5,295,310,310,205,-227.5,-227.5,205,272.5,-290,-290,272.5,787.5,2,M,SBD,Single-ply
Tim Womack,1961-02-01,M-M1b,105.28,110,225,237.5,252.5,252.5,185,195,205,205,225,237.5,245,245,702.5,3,M,SBD,Single-ply
Greg Nucci,1962-04-05,M-M1b,107,110,237.5,260,-267.5,260,-175,-182.5,182.5,182.5,220,230,245,245,687.5,4,M,SBD,Single-ply
Ken Paxton,1959-11-08,M-M1b,106.78,110,232.5,245,-262.5,245,182.5,-190,-190,182.5,217.5,232.5,-242.5,232.5,660,5,M,SBD,Single-ply
Michael Porter,1960-07-04,M-M1b,109.38,110,160,-175,182.5,182.5,140,167.5,182.5,182.5,160,182.5,192.5,192.5,557.5,6,M,SBD,Single-ply
Gary Pamplin,1957-08-11,M-M2a,109.82,110,292.5,310,328,328,242.5,257.5,262.5,262.5,240,255,-260,255,845.5,1,M,SBD,Single-ply
Steven Sobotka,1956-11-17,M-M2a,104.16,110,235,-247.5,247.5,247.5,-185,190,195,195,220,232.5,237.5,237.5,680,2,M,SBD,Single-ply
David Wolf,1954-06-01,M-M2a,108.86,110,-205,205,220,220,155,-160,160,160,227.5,-237.5,-237.5,227.5,607.5,3,M,SBD,Single-ply
Mark Bowen,1955-12-12,M-M2a,109.22,110,220,-235,-235,220,145,-155,-155,145,215,-230,-230,215,580,4,M,SBD,Single-ply
Shawn Cain,1957-12-06,M-M2a,106.14,110,250,-260,-280,250,75,-100,-120,75,-75,75,-200,75,400,5,M,SBD,Single-ply
Bill Sindelar,1951-01-17,M-M2b,109.44,110,-237.5,-237.5,-242.5,,-170,170,175,175,227.5,245,-260,245,,DQ,M,SBD,Single-ply
Steve Slavens,1951-01-18,M-M2b,104.08,110,192.5,207.5,-212.5,207.5,160,175,-182.5,175,227.5,237.5,-245,237.5,620,1,M,SBD,Single-ply
Jon Willis,1953-05-01,M-M2b,108.06,110,190,200,-227.5,200,-125,125,-130,125,210,-227.5,227.5,227.5,552.5,2,M,SBD,Single-ply
Bill Brady,1948-08-06,M-M3a,103.76,110,180,-190,-195,180,-120,120,-137.5,120,205,-227.5,-227.5,205,505,1,M,SBD,Single-ply
Bill Helmich,1942-02-08,M-M3b,105.12,110,215,220,-225,220,125,132.5,-140,132.5,257.5,272.5,281.5,281.5,634,1,M,SBD,Single-ply
Anthony Harris #1,1964-11-04,M-M1a,111.34,125,377.5,392.5,402.5,402.5,-195,200,205,205,332.5,355,,355,962.5,1,M,SBD,Single-ply
Bill McDonough,1966-12-27,M-M1a,124.84,125,300,312.5,-317.5,312.5,230,-235,-237.5,230,275,-292.5,-292.5,275,817.5,2,M,SBD,Single-ply
Ronald Ballman,1969-01-14,M-M1a,124.34,125,227.5,-247.5,-252.5,227.5,155,-165,165,165,207.5,215,-227.5,215,607.5,3,M,SBD,Single-ply
Dave Gonzales,1961-06-01,M-M1b,123.9,125,322.5,335,345,345,225,230,235,235,280,287.5,-300,287.5,867.5,1,M,SBD,Single-ply
Bill Collins,,M-M1b,124.24,125,285,307.5,-315,307.5,227.5,-237.5,-237.5,227.5,-272.5,-272.5,272.5,272.5,807.5,2,M,SBD,Single-ply
Jon Briggs,1961-11-30,M-M1b,116.18,125,270,287.5,300,300,180,192.5,-202.5,192.5,260,-287.5,-295,260,752.5,3,M,SBD,Single-ply
Keith Belisle,1963-10-12,M-M1b,119.54,125,287.5,-305,310,310,200,210,-215,210,190,220,230,230,750,4,M,SBD,Single-ply
Joe Lewis #2,1964-02-15,M-M1b,119.3,125,280,290,-297.5,290,165,172.5,-177.5,172.5,232.5,250,-265,250,712.5,5,M,SBD,Single-ply
Peter Walters,1959-03-17,M-M2a,123.8,125,260,290,-300,290,182.5,-197.5,197.5,197.5,-250,267.5,282.5,282.5,770,1,M,SBD,Single-ply
Dave Schneider,1956-10-24,M-M2a,123.38,125,255,275,-295,275,182.5,192.5,197.5,197.5,-262.5,262.5,-285,262.5,735,2,M,SBD,Single-ply
Curtis Wainwright,1954-11-12,M-M2a,120.48,125,245,265,-280,265,175,182.5,187.5,187.5,230,240,-250,240,692.5,3,M,SBD,Single-ply
Joe Dentice,1958-09-25,M-M2a,112.96,125,215,230,237.5,237.5,167.5,177.5,182.5,182.5,255,265,-272.5,265,685,4,M,SBD,Single-ply
Ted Stewart,1956-09-09,M-M2a,122.36,125,215,230,237.5,237.5,-130,132.5,145,145,215,237.5,-250,237.5,620,5,M,SBD,Single-ply
Shaun Anderson,1952-08-25,M-M2b,121.12,125,250,-280,-280,250,160,167.5,177.5,177.5,170,182.5,210,210,637.5,1,M,SBD,Single-ply
Albert Wood,1950-03-31,M-M2b,112.88,125,-190,190,-200,190,115,122.5,-130,122.5,205,-215,,205,517.5,2,M,SBD,Single-ply
Crayton Taylor,1946-01-11,M-M3a,113,125,187.5,197.5,207.5,207.5,-150,150,155,155,227.5,240,250,250,612.5,1,M,SBD,Single-ply
Harry Heyman,1942-12-02,M-M3b,123.6,125,100,,,100,100,,,100,100,,,100,300,1,M,SBD,Single-ply
Robert Speno,1968-12-12,M-M1a,128.8,125+,185,207.5,250,250,-250,-250,-250,,-285,,,,,DQ,M,SBD,Single-ply
Brad Gillingham,1966-04-26,M-M1a,146.9,125+,342.5,365,380,380,250,,,250,345,370,,370,1000,1,M,SBD,Single-ply
Carl Werda,1966-05-11,M-M1a,127.8,125+,267.5,277.5,287.5,287.5,175,182.5,-187.5,182.5,-280,280,-285,280,750,2,M,SBD,Single-ply
Randy Pirtle,1963-08-20,M-M1b,128.06,125+,-260,-260,-260,,-187.5,,,,-260,,,,,DQ,M,SBD,Single-ply
Daniel Gaudreau,1960-12-29,M-M1b,163.2,125+,352.5,365,372.5,372.5,282.5,-310.5,-310.5,282.5,-282.5,282.5,305,305,960,1,M,SBD,Single-ply
Steve Johnson #1,1961-10-05,M-M1b,127.5,125+,-200,200,207.5,207.5,175,182.5,187.5,187.5,230,240,-250,240,635,2,M,SBD,Single-ply
William E Duncan,1958-12-30,M-M2a,167.94,125+,220,237.5,247.5,247.5,115,125,-130,125,-225,-230,-230,,,DQ,M,SBD,Single-ply
Roger Hendrix Sr,1955-05-20,M-M2a,137.48,125+,330,-347.5,347.5,347.5,205,220,-230,220,-287.5,287.5,-300,287.5,855,1,M,SBD,Single-ply
Steve Green,1951-02-09,M-M2b,145.04,125+,300,320,325,325,235,245,-250,245,-270,270,-300,270,840,1,M,SBD,Single-ply
Robert Crawford,1951-07-30,M-M2b,143.12,125+,182.5,220,232.5,232.5,165,187.5,197.5,197.5,182.5,,,182.5,612.5,2,M,SBD,Single-ply
William Morris,1944-01-29,M-M3b,125.5,125+,227.5,250,272.5,272.5,185,-195,195,195,222.5,-237.5,237.5,237.5,705,1,M,SBD,Single-ply
